{
  "formatVersion": 1,
  "database": {
    "version": 1,
    "identityHash": "5a5e5cf89d6dfc0716d09ccc38b1556c",
    "entities": [
      {
        "tableName": "time_data",
        "createSql": "CREATE TABLE IF NOT EXISTS `${TABLE_NAME}` (`_id` INTEGER PRIMARY KEY AUTOINCREMENT NOT NULL, `start_time` TEXT NOT NULL, `end_time` TEXT)",
        "fields": [
          {
            "fieldPath": "id",
            "columnName": "_id",
            "affinity": "INTEGER",
            "notNull": true
          },
          {
            "fieldPath": "startTime",
            "columnName": "start_time",
            "affinity": "TEXT",
            "notNull": true
          },
          {
            "fieldPath": "endTime",
            "columnName": "end_time",
            "affinity": "TEXT",
            "notNull": false
          }
        ],
        "primaryKey": {
          "columnNames": [
            "_id"
          ],
          "autoGenerate": true
        },
        "indices": [],
        "foreignKeys": []
      }
    ],
    "views": [],
    "setupQueries": [
      "CREATE TABLE IF NOT EXISTS room_master_table (id INTEGER PRIMARY KEY,identity_hash TEXT)",
      "INSERT OR REPLACE INTO room_master_table (id,identity_hash) VALUES(42, '5a5e5cf89d6dfc0716d09ccc38b1556c')"
    ]
  }
}